10
Bolo
1
Doces
20
100
1
Pizza
1
Salgados
20
100
2
Camisa
1
Roupas
40
100
3
Calças
1
Roupas
40
100
4
Batman
2
Livros
Quadrinhos
20
1000
5
Superman
2
Livros
Quadrinhos
20
1000
6
Naruto
2
Livros
Mangás
20
100
7
Pokemon
2
Livros
Mangás
20
100
8
Notebook
1
Eletrônico
2500
10000
9
Sofá
1
Móveis
1000
100
10
